{
  "seed_urls": [
    //    {
    //      "url": {
    //        "prefix": "https://www.foxbusiness.com/category/{1}?{2}",
    //        "rules": {
    //          "1": "financials, economic-indicators, retail, health-care, energy, industrials",
    //          "2": "page=100"
    //        }
    //      },
    //      "scrap": {
    //        "pageNumber": {
    //          "start" : 0
    //        },
    //        "tags" : {
    //          "link": "div.bigHeader > div > div.headline > a",
    //          "title": "h1.title",
    //          "datetime": "article:published_time",
    //          "content": "div > article"
    //        }
    //      },
    //      "max_thread": "10",
    //      "depth": "5",
    //      "label": "foxbusiness"
    //    },
    {
      "pools": "10",
      "label": "cnbc",
      "crawling_rule": {
        "prefix": "https://www.cnbc.com/{section}/?{page}",
        "args": {
          "section": "economy, world-economy, us-economy, finance, banks, investing, wall-street, mergers-and-acquisitions, politics, congress, law, taxes, consumers, autos",
          "page": {
            "keyword": "page",
            "from": "1",
            "to": "100"
          }
        }
      },
      "scraping_rule": {
        "link": "div.bigHeader > div > div.headline > a",
        "title": "h1.title",
        "datetime": "article:published_time",
        "content": "div > article"
      }
    }
    //  ,
    //    {
    //      "url": {
    //        "prefix": "https://www.reuters.com/news/archive/{1}News?view=page&{2}&pageSize=10",
    //        "rules": {
    //          "1": "business, markets, world, politics, technology",
    //          "2": "page=100"
    //        }
    //      },
    //      "max_thread": "10",
    //      "depth": "5",
    //      "label": "reuters"
    //    }
  ]
}